id;num;titre;type;description;texte_accord;date_demande;validation
1;transitional;task-force out-of-the-box Buckinghamshire;Integration;convergence Barbados synthesize;Legacy open system Security;2020-11-19;false
2;application program;Configurable RSS Chair;Michigan customer loyalty;hack EXE XSS;Baby Iowa;2020-11-19;false
3;COM connecting;quantify Shoal infrastructure;Guinea Franc target;Wooden Practical Soft Table Ergonomic;Usability Balanced;2020-11-18;true
4;Factors;Handmade Wooden Pizza auxiliary;extend Soft;Philippine Peso online;Legacy orchid;2020-11-19;true
5;Wyoming;Principal best-of-breed withdrawal;e-business;Home Loan Account;wireless Incredible Fresh Mouse policy;2020-11-18;false
6;USB Chief;Human;multi-tasking;Dynamic Applications Personal Loan Account;functionalities;2020-11-19;false
7;Cambodia Reverse-engineered Frozen;overriding Riel;Northern Mariana Islands Auto Loan Account;Salad Pennsylvania;Credit Card Account;2020-11-19;true
8;International sensor;microchip Programmable;Plastic Intelligent Concrete Computer online;bifurcated;Generic Future;2020-11-19;false
9;Brooks ivory Bedfordshire;context-sensitive Gorgeous;wireless calculating;Practical teal program;card EXE;2020-11-19;true
10;Planner intuitive;Sudanese Pound Jewelery;toolset Movies;Barbados COM;attitude-oriented;2020-11-19;true
