{
  "name": "Accord",
  "fields": [
    {
      "fieldName": "nom",
      "fieldType": "String"
    },
    {
      "fieldName": "titre",
      "fieldType": "String"
    },
    {
      "fieldName": "domaine",
      "fieldType": "String"
    },
    {
      "fieldName": "description",
      "fieldType": "String"
    },
    {
      "fieldName": "but",
      "fieldType": "String"
    },
    {
      "fieldName": "dateSignature",
      "fieldType": "LocalDate"
    },
    {
      "fieldName": "dateExpiration",
      "fieldType": "LocalDate"
    },
    {
      "fieldName": "status",
      "fieldType": "Boolean"
    }
  ],
  "relationships": [
    {
      "relationshipType": "one-to-one",
      "otherEntityName": "comite",
      "otherEntityRelationshipName": "accord",
      "relationshipName": "comite",
      "otherEntityField": "id",
      "ownerSide": true
    },
    {
      "relationshipType": "one-to-many",
      "otherEntityName": "activite",
      "otherEntityRelationshipName": "accord",
      "relationshipName": "activite"
    },
    {
      "relationshipType": "many-to-one",
      "otherEntityName": "avenant",
      "otherEntityRelationshipName": "accord",
      "relationshipName": "avenant",
      "otherEntityField": "id"
    },
    {
      "relationshipType": "many-to-one",
      "otherEntityName": "partenaire",
      "otherEntityRelationshipName": "accord",
      "relationshipName": "partenaire",
      "otherEntityField": "id"
    }
  ],
  "changelogDate": "20200521165500",
  "entityTableName": "accord",
  "dto": "no",
  "pagination": "no",
  "service": "no",
  "jpaMetamodelFiltering": false,
  "fluentMethods": true,
  "readOnly": false,
  "embedded": false,
  "clientRootFolder": "",
  "applications": "*"
}
